
define OPAMP_BiasCut ( inm  inp  out  int  N__10 ) 
;parameters 
"p_33_mm":Mp1  mirr inm top top Length=Lin Width=WoLin*Lin Mode=1 Noise=yes 
"n_33_mm":Mn1  mirr mirr 0 0 Length=Lout Width=WoLmirr*Lout Mode=1 Noise=yes 
"p_33_mm":Mp2  int inp top top Length=Lin Width=WoLin*Lin Mode=1 Noise=yes 
"n_33_mm":Mn2  int mirr 0 0 Length=Lout Width=WoLmirr*Lout Mode=1 Noise=yes 
"p_33_mm":Mp3  top N__21 vdd vdd Length=Lout Width=WoLtop*Lout Mode=1 Noise=yes 
"n_33_mm":Mn3  out N__10 0 0 Length=Lout Width=WoLout*Lout Mode=1 Noise=yes 
"p_33_mm":Mp4  out N__11 vdd vdd Length=Lout Width=F*WoLout*Lout Mode=1 Noise=yes 
"p_33_mm":Mp5  N__21 N__21 vdd vdd Length=Lout Width=F*WoLout*Lout Mode=1 Noise=yes 
"p_33_mm":Mp6  N__11 N__11 vdd vdd Length=Lout Width=F*WoLout*Lout Mode=1 Noise=yes 
I_Source:SRC2  N__21 0 Type="I_DC" Idc=Iout 
I_Source:SRC3  N__11 0 Type="I_DC" Idc=Iout 
V_Source:SRC1  vdd 0 Type="V_DC" Vdc=3.3 V SaveCurrent=1 
C:C1  N__10 out C=Cc 
Lin=2um
Lout=1um
GBW=100e6
Cl=10pF
Kp=40e-6
F=Kn/Kp
Kn=100e-6
Vovin=0.15
Vovout=0.2
Cc=3pF
f_nd=6*GBW
gmout=f_nd*Cl*2*pi
Iout=gmout*Vovout/2
WoLout=Iout/(Kn*Vovout*Vovout)
gmin=GBW*Cc*2*pi
Iin=gmin*Vovin/2
WoLin=Iin/(Kp*Vovin*Vovin)
WoLmirr=Iin/(Kn*Vovout*Vovout)
WoLtop=WoLmirr*F*2
end OPAMP_BiasCut

; probe to measure the reference current
Short:IRa  VRa N__15 Mode=0 SaveCurrent=yes 

; input resistor
R:R2  N__15 N__12 R=500 Ohm Noise=yes 

; probe to measure the input current
Short:Ia  N__12 Va Mode=0 SaveCurrent=yes 

; opamp itself
OPAMP_BiasCut:I__0  Va sgnd Vb Vca Vcb 

; probe to measure the output current
Short:Ib  N__14 Vb Mode=0 SaveCurrent=yes 
; probe to measure the injected reference signal into the output
Short:IRb  VRb N__14 Mode=0 SaveCurrent=yes 

; probe to measure the reference current of the injected singal between the stages
Short:IRc  VRc N__1 Mode=0 SaveCurrent=yes 

; probes to measure the current flowing in between the stages
Short:Ica  N__1 Vca Mode=0 SaveCurrent=yes 
Short:Icb  N__1 Vcb Mode=0 SaveCurrent=yes 

; feedback resistor
R:R1  N__12 N__14 R=2500 Ohm Noise=yes 

; load capacitor
C:C1  N__14 sgnd C=10 pF 

; signal ground source
V_Source:SRC1  sgnd 0 Type="V_DC" Vdc=3.3/2 SaveCurrent=0 




#define TT TT
#ifndef inc_V__Toolbox_ADS_MIMOid_Demo_CascadedAmplifier_Models_umc18config_net
#define inc_V__Toolbox_ADS_MIMOid_Demo_CascadedAmplifier_Models_umc18config_net inc_V__Toolbox_ADS_MIMOid_Demo_CascadedAmplifier_Models_umc18config_net
#include "V:\Toolbox\ADS_MIMOid\Demo\CascadedAmplifier\Models\umc18config.net"
#endif
#undef TT

