#ifdef TT

;*****************************************************************************************
;         0.18um 1.8v/3.3v MIXEDMODE Twin-well technology, 3.3V Low VT NMOS Model-TT     *
;*****************************************************************************************
model n_lv_33_mm MOSFET Tnom=27.0 Version=3.1 Tox=7.00000e-09 Xj=1.6000000e-07 Nch=1.0241000e+17 \
      Lln=1.0000000 Lwn=1.0000000 Wln=1.0000000 Wwn=1.0000000 Lint=2.0000000e-08 Ll=0.00 \
      Lw=0.00 Lwl=0.00 Wint=1.1249999e-08 Wl=0.00 Ww=0.00 Wwl=0.00 Mobmod=1 Xl=0 Xw=0 Dwg=-2.0000002e-09 \
      Dwb=0.00 Binunit=2 Vth0=0.3143800 K1=0.4411720 K2=-2.5000002e-03 K3=8.0000000 Dvt0=9.5500000 \
      Dvt1=0.6921755 Dvt2=-1.9199999e-02 Dvt0w=1.4999999 Dvt1w=3.8390000e+06 Dvt2w=0.00 \
      Nlx=1.0000000e-07 W0=2.5000000e-07 K3b=-2.2000003 Vsat=1.4600500e+05 Ua=7.4999990e-12 \
      Ub=1.4716000e-18 Uc=4.2900000e-11 Rdsw=3.4000000e+02 Prwb=0.1000000 Prwg=5.0000000e-02 \
      Wr=0.8800000 U0=4.0670000e-02 A0=1.3379101 Keta=-1.9512800e-02 A1=-1.5000000e-02 \
      A2=0.4950000 Ags=0.2799817 B0=0.00 B1=0.00 Voff=-0.1266667 Nfactor=1.9196697 Cit=-8.2513200e-04 \
      Cdsc=-5.5000000e-03 Cdscb=-2.0000001e-03 Cdscd=-2.3108199e-03 Eta0=9.0787900e-02 \
      Etab=-1.8052302e-02 Dsub=0.4388730 Pclm=2.0320799 Pdiblc1=0.1000000 Pdiblc2=8.7416200e-04 \
      Pdiblcb=0.1515152 Drout=0.5600000 Pscbe1=3.1151754e+08 Pscbe2=4.7085900e-07 Pvag=1.8000000 \
      Delta=1.0000000e-02 Alpha0=0.00 Beta0=30.0000000 Kt1=-0.1100000 Kt2=2.2000000e-02 \
      At=3.3000000e+04 Ute=-1.0548464 Ua1=2.0172199e-09 Ub1=-2.1093869e-18 Uc1=-6.6587780e-11 \
      Kt1l=0.00 Prt=0.00 Cj=7.367141e-04 Mj=0.336086 Pb=0.7201007 Cjsw=1.73106e-10 Mjsw=0.2086389 \
      Pbsw=0.6102874 Cta=7.477216e-04 Ctp=1.326763e-03 Pta=1.775738e-03 Ptp=2.355726e-03 \
      Js=1.00e-04 Jsw=0.00 Cjswg=5.23e-10 Cgdo=3.5e-10 Acm=3 Hdif=3.2e-7 Cgso=3.5e-10 Cgbo=0.0 \
      Capmod=2 Elm=5 Xpart=1 Cf=1.392e-10 Rsh=8 Tlevc=1 Dwc=1.125e-08 NMOS=1 PMOS=0 Idsmod=8 \
       Vbm=-3.0  Wk3=-1.5000001e-07 Lvsat=1.2000000e-02 Pvsat=4.0000000e-09 \
      Lketa=1.8000000e-08

;*****************************************************************************************
;         0.18um 1.8v/3.3v MIXEDMODE Twin-well technology, 3.3V Low VT PMOS Model-TT     *
;*****************************************************************************************
model p_lv_33_mm MOSFET Tnom=27.0 Version=3.1 Tox=7.00000e-09 Xj=1.8000000e-07 Nch=5.3343000e+16 \
      Lln=0.7216445 Lwn=1.0000000 Wln=2.0000000 Wwn=0.5480860 Lint=8.7500000e-10 Ll=1.1489934e-12 \
      Lw=-8.0000000e-15 Lwl=-1.8801899e-20 Wint=2.6149999e-08 Wl=-3.3356700e-21 Ww=-3.7684900e-12 \
      Wwl=0.00 Mobmod=1 Xl=0 Xw=0 Dwg=-1.3888889e-08 Dwb=5.6433000e-09 Vth0=-0.4238060 K1=0.4537740 \
      K2=-1.6830200e-02 K3=-2.3458099 Dvt0=2.2409160 Dvt1=0.7000346 Dvt2=5.1822500e-02 \
      Dvt0w=-0.6666300 Dvt1w=1.7665100e+06 Dvt2w=0.1730700 Nlx=1.0942075e-07 W0=0.00 K3b=0.5537800 \
      Vsat=1.2313600e+05 Ua=9.3385000e-10 Ub=8.7038620e-19 Uc=-4.8379430e-11 Rdsw=1.1941917e+03 \
      Prwb=-3.7754260e-02 Prwg=-3.0872462e-02 Wr=1.1123391 U0=1.1451221e-02 A0=0.5109490 \
      Keta=-1.2610002e-02 A1=0.00 A2=0.4000000 Ags=0.1783000 B0=1.8980900e-07 B1=4.7157910e-07 \
      Voff=-0.1006746 Nfactor=2.0000000 Cit=-4.5838980e-04 Cdsc=1.5963858e-03 Cdscb=0.00 \
      Cdscd=3.3960306e-03 Eta0=4.0173400e-02 Etab=-2.4490699e-02 Dsub=0.8703098 Pclm=1.5312500 \
      Pdiblc1=0.1000000 Pdiblc2=2.4438500e-03 Pdiblcb=0.1515152 Drout=0.5001400 Pscbe1=6.2853930e+08 \
      Pscbe2=5.0000000e-05 Pvag=-0.7000000 Delta=1.0000000e-02 Alpha0=0.00 Beta0=30.0000000 \
      Kt1=-0.3281201 Kt2=-2.5214884e-02 At=3.3000000e+04 Ute=-0.6066882 Ua1=5.3900000e-09 \
      Ub1=-8.5040010e-18 Uc1=-1.9939508e-11 Kt1l=0.00 Prt=0.00 Cj=0.00102 Mj=0.336 Pb=0.67 \
      Cjsw=1.5e-10 Mjsw=0.209 Pbsw=0.45 Cjswg=2.8e-10 Cta=0.001 Ctp=0.0005 Pta=0.00142 Ptp=0.00156 \
      Js=1.00e-04 Jsw=0.00 Cgdo=3.0e-10 Acm=3 Hdif=3.2e-7 Cgso=3.0e-10 Cgbo=0.0e+00 Capmod=2 \
      Elm=5 Xpart=1 Cf=1.392e-10 Rsh=8 Tlevc=1 Dwc=2.615e-08 PMOS=1 NMOS=0 Idsmod=8  \
      Vbm=-3.0  
#endif

#ifdef SS

;*****************************************************************************************
;         0.18um 1.8v/3.3v MIXEDMODE Twin-well technology, 3.3V Low VT NMOS Model-SS     *
;*****************************************************************************************
model n_lv_33_mm MOSFET Tnom=27.0 Version=3.1 Tox=7.00e-09+5e-10 Xj=1.6000000e-07 Nch=1.0241000e+17 \
      Lln=1.0000000 Lwn=1.0000000 Wln=1.0000000 Wwn=1.0000000 Lint=2.00e-08-3.93e-8 Ll=0.00 \
      Lw=0.00 Lwl=0.00 Wint=1.1249999e-08+1e-8 Wl=0.00 Ww=0.00 Wwl=0.00 Mobmod=1 Xl=0 Xw=0 \
      Dwg=-2.0000002e-09 Dwb=0.00 Binunit=2 Vth0=0.3143800+0.05 K1=0.4411720 K2=-2.5000002e-03 \
      K3=8.0000000 Dvt0=9.5500000 Dvt1=0.6921755 Dvt2=-1.9199999e-02 Dvt0w=1.4999999 Dvt1w=3.8390000e+06 \
      Dvt2w=0.00 Nlx=1.0000000e-07 W0=2.5000000e-07 K3b=-2.2000003 Vsat=1.4600500e+05 Ua=7.4999990e-12 \
      Ub=1.4716000e-18 Uc=4.2900000e-11 Rdsw=3.4000000e+02 Prwb=0.1000000 Prwg=5.0000000e-02 \
      Wr=0.8800000 U0=4.0670000e-02 A0=1.3379101 Keta=-1.9512800e-02 A1=-1.5000000e-02 \
      A2=0.4950000 Ags=0.2799817 B0=0.00 B1=0.00 Voff=-0.1266667 Nfactor=1.9196697 Cit=-8.2513200e-04 \
      Cdsc=-5.5000000e-03 Cdscb=-2.0000001e-03 Cdscd=-2.3108199e-03 Eta0=9.0787900e-02 \
      Etab=-1.8052302e-02 Dsub=0.4388730 Pclm=2.0320799 Pdiblc1=0.1000000 Pdiblc2=8.7416200e-04 \
      Pdiblcb=0.1515152 Drout=0.5600000 Pscbe1=3.1151754e+08 Pscbe2=4.7085900e-07 Pvag=1.8000000 \
      Delta=1.0000000e-02 Alpha0=0.00 Beta0=30.0000000 Kt1=-0.1100000 Kt2=2.2000000e-02 \
      At=3.3000000e+04 Ute=-1.0548464 Ua1=2.0172199e-09 Ub1=-2.1093869e-18 Uc1=-6.6587780e-11 \
      Kt1l=0.00 Prt=0.00 Cj=7.367141e-04 Mj=0.336086 Pb=0.7201007 Cjsw=1.73106e-10 Mjsw=0.2086389 \
      Pbsw=0.6102874 Cta=7.477216e-04 Ctp=1.326763e-03 Pta=1.775738e-03 Ptp=2.355726e-03 \
      Js=1.00e-04 Jsw=0.00 Cjswg=5.23e-10 Cgdo=3.5e-10*0.9 Acm=3 Hdif=3.2e-7 Cgso=3.5e-10*0.9 \
      Cgbo=0.0 Capmod=2 Elm=5 Xpart=1 Cf=1.392e-10 Rsh=8 Tlevc=1 Dwc=1.125e-08 NMOS=1 PMOS=0 \
      Idsmod=8  Vbm=-3.0  Wk3=-1.5000001e-07 Lvsat=1.2000000e-02 Pvsat=4.0000000e-09 \
      Lketa=1.8000000e-08

;*****************************************************************************************
;         0.18um 1.8v/3.3v MIXEDMODE Twin-well technology, 3.3V Low VT PMOS Model-SS     *
;*****************************************************************************************
model p_lv_33_mm MOSFET Tnom=27.0 Version=3.1 Tox=7.00e-09+5e-10 Xj=1.8000000e-07 Nch=5.3343000e+16 \
      Lln=0.7216445 Lwn=1.0000000 Wln=2.0000000 Wwn=0.5480860 Lint=8.7500e-10-2.5e-8 Ll=1.1489934e-12 \
      Lw=-8.0000000e-15 Lwl=-1.8801899e-20 Wint=2.6149999e-08+1e-8 Wl=-3.3356700e-21 Ww=-3.7684900e-12 \
      Wwl=0.00 Mobmod=1 Xl=0 Xw=0 Dwg=-1.3888889e-08 Dwb=5.6433000e-09 Vth0=-0.4238060-0.05 \
      K1=0.4537740 K2=-1.6830200e-02 K3=-2.3458099 Dvt0=2.2409160 Dvt1=0.7000346 Dvt2=5.1822500e-02 \
      Dvt0w=-0.6666300 Dvt1w=1.7665100e+06 Dvt2w=0.1730700 Nlx=1.0942075e-07 W0=0.00 K3b=0.5537800 \
      Vsat=1.2313600e+05 Ua=9.3385000e-10 Ub=8.7038620e-19 Uc=-4.8379430e-11 Rdsw=1.1941917e+03 \
      Prwb=-3.7754260e-02 Prwg=-3.0872462e-02 Wr=1.1123391 U0=1.1451221e-02 A0=0.5109490 \
      Keta=-1.2610002e-02 A1=0.00 A2=0.4000000 Ags=0.1783000 B0=1.8980900e-07 B1=4.7157910e-07 \
      Voff=-0.1006746 Nfactor=2.0000000 Cit=-4.5838980e-04 Cdsc=1.5963858e-03 Cdscb=0.00 \
      Cdscd=3.3960306e-03 Eta0=4.0173400e-02 Etab=-2.4490699e-02 Dsub=0.8703098 Pclm=1.5312500 \
      Pdiblc1=0.1000000 Pdiblc2=2.4438500e-03 Pdiblcb=0.1515152 Drout=0.5001400 Pscbe1=6.2853930e+08 \
      Pscbe2=5.0000000e-05 Pvag=-0.7000000 Delta=1.0000000e-02 Alpha0=0.00 Beta0=30.0000000 \
      Kt1=-0.3281201 Kt2=-2.5214884e-02 At=3.3000000e+04 Ute=-0.6066882 Ua1=5.3900000e-09 \
      Ub1=-8.5040010e-18 Uc1=-1.9939508e-11 Kt1l=0.00 Prt=0.00 Cj=0.00102 Mj=0.336 Pb=0.67 \
      Cjsw=1.5e-10 Mjsw=0.209 Pbsw=0.45 Cjswg=2.8e-10 Cta=0.001 Ctp=0.0005 Pta=0.00142 Ptp=0.00156 \
      Js=1.00e-04 Jsw=0.00 Cgdo=3.0e-10*0.9 Acm=3 Hdif=3.2e-7 Cgso=3.0e-10*0.9 Cgbo=0.0e+00 \
      Capmod=2 Elm=5 Xpart=1 Cf=1.392e-10 Rsh=8 Tlevc=1 Dwc=2.615e-08 PMOS=1 NMOS=0 Idsmod=8 \
       Vbm=-3.0  
#endif

#ifdef FF

;*****************************************************************************************
;         0.18um 1.8v/3.3v MIXEDMODE Twin-well technology, 3.3V Low VT NMOS Model-FF     *
;*****************************************************************************************
model n_lv_33_mm MOSFET Tnom=27.0 Version=3.1 Tox=7.0e-09-5e-10 Xj=1.6000000e-07 Nch=1.0241000e+17 \
      Lln=1.0000000 Lwn=1.0000000 Wln=1.0000000 Wwn=1.0000000 Lint=2.00e-08+2.56e-8 Ll=0.00 \
      Lw=0.00 Lwl=0.00 Wint=1.1249999e-08-1e-8 Wl=0.00 Ww=0.00 Wwl=0.00 Mobmod=1 Xl=0 Xw=0 \
      Dwg=-2.0000002e-09 Dwb=0.00 Binunit=2 Vth0=0.3143800-0.05 K1=0.4411720 K2=-2.5000002e-03 \
      K3=8.0000000 Dvt0=9.5500000 Dvt1=0.6921755 Dvt2=-1.9199999e-02 Dvt0w=1.4999999 Dvt1w=3.8390000e+06 \
      Dvt2w=0.00 Nlx=1.0000000e-07 W0=2.5000000e-07 K3b=-2.2000003 Vsat=1.4600500e+05 Ua=7.4999990e-12 \
      Ub=1.4716000e-18 Uc=4.2900000e-11 Rdsw=3.4000000e+02 Prwb=0.1000000 Prwg=5.0000000e-02 \
      Wr=0.8800000 U0=4.0670000e-02 A0=1.3379101 Keta=-1.9512800e-02 A1=-1.5000000e-02 \
      A2=0.4950000 Ags=0.2799817 B0=0.00 B1=0.00 Voff=-0.1266667 Nfactor=1.9196697 Cit=-8.2513200e-04 \
      Cdsc=-5.5000000e-03 Cdscb=-2.0000001e-03 Cdscd=-2.3108199e-03 Eta0=9.0787900e-02 \
      Etab=-1.8052302e-02 Dsub=0.4388730 Pclm=2.0320799 Pdiblc1=0.1000000 Pdiblc2=8.7416200e-04 \
      Pdiblcb=0.1515152 Drout=0.5600000 Pscbe1=3.1151754e+08 Pscbe2=4.7085900e-07 Pvag=1.8000000 \
      Delta=1.0000000e-02 Alpha0=0.00 Beta0=30.0000000 Kt1=-0.1100000 Kt2=2.2000000e-02 \
      At=3.3000000e+04 Ute=-1.0548464 Ua1=2.0172199e-09 Ub1=-2.1093869e-18 Uc1=-6.6587780e-11 \
      Kt1l=0.00 Prt=0.00 Cj=7.367141e-04 Mj=0.336086 Pb=0.7201007 Cjsw=1.73106e-10 Mjsw=0.2086389 \
      Pbsw=0.6102874 Cta=7.477216e-04 Ctp=1.326763e-03 Pta=1.775738e-03 Ptp=2.355726e-03 \
      Js=1.00e-04 Jsw=0.00 Cjswg=5.23e-10 Cgdo=3.5e-10*1.1 Acm=3 Hdif=3.2e-7 Cgso=3.5e-10*1.1 \
      Cgbo=0.0 Capmod=2 Elm=5 Xpart=1 Cf=1.392e-10 Rsh=8 Tlevc=1 Dwc=1.125e-08 NMOS=1 PMOS=0 \
      Idsmod=8  Vbm=-3.0  Wk3=-1.5000001e-07 Lvsat=1.2000000e-02 Pvsat=4.0000000e-09 \
      Lketa=1.8000000e-08

;*****************************************************************************************
;         0.18um 1.8v/3.3v MIXEDMODE Twin-well technology, 3.3V Low VT PMOS Model-FF     *
;*****************************************************************************************
model p_lv_33_mm MOSFET Tnom=27.0 Version=3.1 Tox=7.00e-09-5e-10 Xj=1.8000000e-07 Nch=5.3343000e+16 \
      Lln=0.7216445 Lwn=1.0000000 Wln=2.0000000 Wwn=0.5480860 Lint=8.750e-10+1.68e-8 Ll=1.1489934e-12 \
      Lw=-8.0000000e-15 Lwl=-1.8801899e-20 Wint=2.6149999e-08-1e-8 Wl=-3.3356700e-21 Ww=-3.7684900e-12 \
      Wwl=0.00 Mobmod=1 Xl=0 Xw=0 Dwg=-1.3888889e-08 Dwb=5.6433000e-09 Vth0=-0.4238060+0.05 \
      K1=0.4537740 K2=-1.6830200e-02 K3=-2.3458099 Dvt0=2.2409160 Dvt1=0.7000346 Dvt2=5.1822500e-02 \
      Dvt0w=-0.6666300 Dvt1w=1.7665100e+06 Dvt2w=0.1730700 Nlx=1.0942075e-07 W0=0.00 K3b=0.5537800 \
      Vsat=1.2313600e+05 Ua=9.3385000e-10 Ub=8.7038620e-19 Uc=-4.8379430e-11 Rdsw=1.1941917e+03 \
      Prwb=-3.7754260e-02 Prwg=-3.0872462e-02 Wr=1.1123391 U0=1.1451221e-02 A0=0.5109490 \
      Keta=-1.2610002e-02 A1=0.00 A2=0.4000000 Ags=0.1783000 B0=1.8980900e-07 B1=4.7157910e-07 \
      Voff=-0.1006746 Nfactor=2.0000000 Cit=-4.5838980e-04 Cdsc=1.5963858e-03 Cdscb=0.00 \
      Cdscd=3.3960306e-03 Eta0=4.0173400e-02 Etab=-2.4490699e-02 Dsub=0.8703098 Pclm=1.5312500 \
      Pdiblc1=0.1000000 Pdiblc2=2.4438500e-03 Pdiblcb=0.1515152 Drout=0.5001400 Pscbe1=6.2853930e+08 \
      Pscbe2=5.0000000e-05 Pvag=-0.7000000 Delta=1.0000000e-02 Alpha0=0.00 Beta0=30.0000000 \
      Kt1=-0.3281201 Kt2=-2.5214884e-02 At=3.3000000e+04 Ute=-0.6066882 Ua1=5.3900000e-09 \
      Ub1=-8.5040010e-18 Uc1=-1.9939508e-11 Kt1l=0.00 Prt=0.00 Cj=0.00102 Mj=0.336 Pb=0.67 \
      Cjsw=1.5e-10 Mjsw=0.209 Pbsw=0.45 Cjswg=2.8e-10 Cta=0.001 Ctp=0.0005 Pta=0.00142 Ptp=0.00156 \
      Js=1.00e-04 Jsw=0.00 Cgdo=3.0e-10*1.1 Acm=3 Hdif=3.2e-7 Cgso=3.0e-10*1.1 Cgbo=0.0e+00 \
      Capmod=2 Elm=5 Xpart=1 Cf=1.392e-10 Rsh=8 Tlevc=1 Dwc=2.615e-08 PMOS=1 NMOS=0 Idsmod=8 \
       Vbm=-3.0  
#endif

#ifdef SNFP

;*****************************************************************************************
;         0.18um 1.8v/3.3v MIXEDMODE Twin-well technology, 3.3V Low VT NMOS Model-SNFP   *
;*****************************************************************************************
model n_lv_33_mm MOSFET Tnom=27.0 Version=3.1 Tox=7.00000e-09 Xj=1.6000000e-07 Nch=1.0241000e+17 \
      Lln=1.0000000 Lwn=1.0000000 Wln=1.0000000 Wwn=1.0000000 Lint=2.00e-08-2.49e-8 Ll=0.00 \
      Lw=0.00 Lwl=0.00 Wint=1.1249999e-08+5e-9 Wl=0.00 Ww=0.00 Wwl=0.00 Mobmod=1 Xl=0 Xw=0 \
      Dwg=-2.0000002e-09 Dwb=0.00 Binunit=2 Vth0=0.31438+0.03 K1=0.4411720 K2=-2.5000002e-03 \
      K3=8.0000000 Dvt0=9.5500000 Dvt1=0.6921755 Dvt2=-1.9199999e-02 Dvt0w=1.4999999 Dvt1w=3.8390000e+06 \
      Dvt2w=0.00 Nlx=1.0000000e-07 W0=2.5000000e-07 K3b=-2.2000003 Vsat=1.4600500e+05 Ua=7.4999990e-12 \
      Ub=1.4716000e-18 Uc=4.2900000e-11 Rdsw=3.4000000e+02 Prwb=0.1000000 Prwg=5.0000000e-02 \
      Wr=0.8800000 U0=4.0670000e-02 A0=1.3379101 Keta=-1.9512800e-02 A1=-1.5000000e-02 \
      A2=0.4950000 Ags=0.2799817 B0=0.00 B1=0.00 Voff=-0.1266667 Nfactor=1.9196697 Cit=-8.2513200e-04 \
      Cdsc=-5.5000000e-03 Cdscb=-2.0000001e-03 Cdscd=-2.3108199e-03 Eta0=9.0787900e-02 \
      Etab=-1.8052302e-02 Dsub=0.4388730 Pclm=2.0320799 Pdiblc1=0.1000000 Pdiblc2=8.7416200e-04 \
      Pdiblcb=0.1515152 Drout=0.5600000 Pscbe1=3.1151754e+08 Pscbe2=4.7085900e-07 Pvag=1.8000000 \
      Delta=1.0000000e-02 Alpha0=0.00 Beta0=30.0000000 Kt1=-0.1100000 Kt2=2.2000000e-02 \
      At=3.3000000e+04 Ute=-1.0548464 Ua1=2.0172199e-09 Ub1=-2.1093869e-18 Uc1=-6.6587780e-11 \
      Kt1l=0.00 Prt=0.00 Cj=7.367141e-04 Mj=0.336086 Pb=0.7201007 Cjsw=1.73106e-10 Mjsw=0.2086389 \
      Pbsw=0.6102874 Cta=7.477216e-04 Ctp=1.326763e-03 Pta=1.775738e-03 Ptp=2.355726e-03 \
      Js=1.00e-04 Jsw=0.00 Cjswg=5.23e-10 Cgdo=3.5e-10 Acm=3 Hdif=3.2e-7 Cgso=3.5e-10 Cgbo=0.0 \
      Capmod=2 Elm=5 Xpart=1 Cf=1.392e-10 Rsh=8 Tlevc=1 Dwc=1.125e-08 NMOS=1 PMOS=0 Idsmod=8 \
       Vbm=-3.0  Wk3=-1.5000001e-07 Lvsat=1.2000000e-02 Pvsat=4.0000000e-09 \
      Lketa=1.8000000e-08

;*****************************************************************************************
;         0.18um 1.8v/3.3v MIXEDMODE Twin-well technology, 3.3V Low VT PMOS Model-SNFP   *
;*****************************************************************************************
model p_lv_33_mm MOSFET Tnom=27.0 Version=3.1 Tox=7.00000e-09 Xj=1.8000000e-07 Nch=5.3343000e+16 \
      Lln=0.7216445 Lwn=1.0000000 Wln=2.0000000 Wwn=0.5480860 Lint=8.7500e-10+1.16e-8 Ll=1.1489934e-12 \
      Lw=-8.0000000e-15 Lwl=-1.8801899e-20 Wint=2.6149999e-08-5e-9 Wl=-3.3356700e-21 Ww=-3.7684900e-12 \
      Wwl=0.00 Mobmod=1 Xl=0 Xw=0 Dwg=-1.3888889e-08 Dwb=5.6433000e-09 Vth0=-0.4238060+0.03 \
      K1=0.4537740 K2=-1.6830200e-02 K3=-2.3458099 Dvt0=2.2409160 Dvt1=0.7000346 Dvt2=5.1822500e-02 \
      Dvt0w=-0.6666300 Dvt1w=1.7665100e+06 Dvt2w=0.1730700 Nlx=1.0942075e-07 W0=0.00 K3b=0.5537800 \
      Vsat=1.2313600e+05 Ua=9.3385000e-10 Ub=8.7038620e-19 Uc=-4.8379430e-11 Rdsw=1.1941917e+03 \
      Prwb=-3.7754260e-02 Prwg=-3.0872462e-02 Wr=1.1123391 U0=1.1451221e-02 A0=0.5109490 \
      Keta=-1.2610002e-02 A1=0.00 A2=0.4000000 Ags=0.1783000 B0=1.8980900e-07 B1=4.7157910e-07 \
      Voff=-0.1006746 Nfactor=2.0000000 Cit=-4.5838980e-04 Cdsc=1.5963858e-03 Cdscb=0.00 \
      Cdscd=3.3960306e-03 Eta0=4.0173400e-02 Etab=-2.4490699e-02 Dsub=0.8703098 Pclm=1.5312500 \
      Pdiblc1=0.1000000 Pdiblc2=2.4438500e-03 Pdiblcb=0.1515152 Drout=0.5001400 Pscbe1=6.2853930e+08 \
      Pscbe2=5.0000000e-05 Pvag=-0.7000000 Delta=1.0000000e-02 Alpha0=0.00 Beta0=30.0000000 \
      Kt1=-0.3281201 Kt2=-2.5214884e-02 At=3.3000000e+04 Ute=-0.6066882 Ua1=5.3900000e-09 \
      Ub1=-8.5040010e-18 Uc1=-1.9939508e-11 Kt1l=0.00 Prt=0.00 Cj=0.00102 Mj=0.336 Pb=0.67 \
      Cjsw=1.5e-10 Mjsw=0.209 Pbsw=0.45 Cjswg=2.8e-10 Cta=0.001 Ctp=0.0005 Pta=0.00142 Ptp=0.00156 \
      Js=1.00e-04 Jsw=0.00 Cgdo=3.0e-10 Acm=3 Hdif=3.2e-7 Cgso=3.0e-10 Cgbo=0.0e+00 Capmod=2 \
      Elm=5 Xpart=1 Cf=1.392e-10 Rsh=8 Tlevc=1 Dwc=2.615e-08 PMOS=1 NMOS=0 Idsmod=8  \
      Vbm=-3.0  
#endif

#ifdef FNSP

;*****************************************************************************************
;         0.18um 1.8v/3.3v MIXEDMODE Twin-well technology, 3.3V Low VT NMOS Model-FNSP   *
;*****************************************************************************************
model n_lv_33_mm MOSFET Tnom=27.0 Version=3.1 Tox=7.00000e-09 Xj=1.6000000e-07 Nch=1.0241000e+17 \
      Lln=1.0000000 Lwn=1.0000000 Wln=1.0000000 Wwn=1.0000000 Lint=2.00e-08+1.99e-8 Ll=0.00 \
      Lw=0.00 Lwl=0.00 Wint=1.1249999e-08-8e-9 Wl=0.00 Ww=0.00 Wwl=0.00 Mobmod=1 Xl=0 Xw=0 \
      Dwg=-2.0000002e-09 Dwb=0.00 Binunit=2 Vth0=0.3143800-0.03 K1=0.4411720 K2=-2.5000002e-03 \
      K3=8.0000000 Dvt0=9.5500000 Dvt1=0.6921755 Dvt2=-1.9199999e-02 Dvt0w=1.4999999 Dvt1w=3.8390000e+06 \
      Dvt2w=0.00 Nlx=1.0000000e-07 W0=2.5000000e-07 K3b=-2.2000003 Vsat=1.4600500e+05 Ua=7.4999990e-12 \
      Ub=1.4716000e-18 Uc=4.2900000e-11 Rdsw=3.4000000e+02 Prwb=0.1000000 Prwg=5.0000000e-02 \
      Wr=0.8800000 U0=4.0670000e-02 A0=1.3379101 Keta=-1.9512800e-02 A1=-1.5000000e-02 \
      A2=0.4950000 Ags=0.2799817 B0=0.00 B1=0.00 Voff=-0.1266667 Nfactor=1.9196697 Cit=-8.2513200e-04 \
      Cdsc=-5.5000000e-03 Cdscb=-2.0000001e-03 Cdscd=-2.3108199e-03 Eta0=9.0787900e-02 \
      Etab=-1.8052302e-02 Dsub=0.4388730 Pclm=2.0320799 Pdiblc1=0.1000000 Pdiblc2=8.7416200e-04 \
      Pdiblcb=0.1515152 Drout=0.5600000 Pscbe1=3.1151754e+08 Pscbe2=4.7085900e-07 Pvag=1.8000000 \
      Delta=1.0000000e-02 Alpha0=0.00 Beta0=30.0000000 Kt1=-0.1100000 Kt2=2.2000000e-02 \
      At=3.3000000e+04 Ute=-1.0548464 Ua1=2.0172199e-09 Ub1=-2.1093869e-18 Uc1=-6.6587780e-11 \
      Kt1l=0.00 Prt=0.00 Cj=7.367141e-04 Mj=0.336086 Pb=0.7201007 Cjsw=1.73106e-10 Mjsw=0.2086389 \
      Pbsw=0.6102874 Cta=7.477216e-04 Ctp=1.326763e-03 Pta=1.775738e-03 Ptp=2.355726e-03 \
      Js=1.00e-04 Jsw=0.00 Cjswg=5.23e-10 Cgdo=3.5e-10 Acm=3 Hdif=3.2e-7 Cgso=3.5e-10 Cgbo=0.0 \
      Capmod=2 Elm=5 Xpart=1 Cf=1.392e-10 Rsh=8 Tlevc=1 Dwc=1.125e-08 NMOS=1 PMOS=0 Idsmod=8 \
       Vbm=-3.0  Wk3=-1.5000001e-07 Lvsat=1.2000000e-02 Pvsat=4.0000000e-09 \
      Lketa=1.8000000e-08

;*****************************************************************************************
;         0.18um 1.8v/3.3v MIXEDMODE Twin-well technology, 3.3V Low VT PMOS Model-FNSP   *
;*****************************************************************************************
model p_lv_33_mm MOSFET Tnom=27.0 Version=3.1 Tox=7.00000e-09 Xj=1.8000000e-07 Nch=5.3343000e+16 \
      Lln=0.7216445 Lwn=1.0000000 Wln=2.0000000 Wwn=0.5480860 Lint=8.7500e-10-1.45e-8 Ll=1.1489934e-12 \
      Lw=-8.0000000e-15 Lwl=-1.8801899e-20 Wint=2.6149999e-08+5e-9 Wl=-3.3356700e-21 Ww=-3.7684900e-12 \
      Wwl=0.00 Mobmod=1 Xl=0 Xw=0 Dwg=-1.3888889e-08 Dwb=5.6433000e-09 Vth0=-0.4238060-0.03 \
      K1=0.4537740 K2=-1.6830200e-02 K3=-2.3458099 Dvt0=2.2409160 Dvt1=0.7000346 Dvt2=5.1822500e-02 \
      Dvt0w=-0.6666300 Dvt1w=1.7665100e+06 Dvt2w=0.1730700 Nlx=1.0942075e-07 W0=0.00 K3b=0.5537800 \
      Vsat=1.2313600e+05 Ua=9.3385000e-10 Ub=8.7038620e-19 Uc=-4.8379430e-11 Rdsw=1.1941917e+03 \
      Prwb=-3.7754260e-02 Prwg=-3.0872462e-02 Wr=1.1123391 U0=1.1451221e-02 A0=0.5109490 \
      Keta=-1.2610002e-02 A1=0.00 A2=0.4000000 Ags=0.1783000 B0=1.8980900e-07 B1=4.7157910e-07 \
      Voff=-0.1006746 Nfactor=2.0000000 Cit=-4.5838980e-04 Cdsc=1.5963858e-03 Cdscb=0.00 \
      Cdscd=3.3960306e-03 Eta0=4.0173400e-02 Etab=-2.4490699e-02 Dsub=0.8703098 Pclm=1.5312500 \
      Pdiblc1=0.1000000 Pdiblc2=2.4438500e-03 Pdiblcb=0.1515152 Drout=0.5001400 Pscbe1=6.2853930e+08 \
      Pscbe2=5.0000000e-05 Pvag=-0.7000000 Delta=1.0000000e-02 Alpha0=0.00 Beta0=30.0000000 \
      Kt1=-0.3281201 Kt2=-2.5214884e-02 At=3.3000000e+04 Ute=-0.6066882 Ua1=5.3900000e-09 \
      Ub1=-8.5040010e-18 Uc1=-1.9939508e-11 Kt1l=0.00 Prt=0.00 Cj=0.00102 Mj=0.336 Pb=0.67 \
      Cjsw=1.5e-10 Mjsw=0.209 Pbsw=0.45 Cjswg=2.8e-10 Cta=0.001 Ctp=0.0005 Pta=0.00142 Ptp=0.00156 \
      Js=1.00e-04 Jsw=0.00 Cgdo=3.0e-10 Acm=3 Hdif=3.2e-7 Cgso=3.0e-10 Cgbo=0.0e+00 Capmod=2 \
      Elm=5 Xpart=1 Cf=1.392e-10 Rsh=8 Tlevc=1 Dwc=2.615e-08 PMOS=1 NMOS=0 Idsmod=8  \
      Vbm=-3.0  
#endif
