; Translated with ADS Netlist Translator (*) 230.300 Apr  6 2003
#ifdef typ
dc_pad_rf=0

#include "./pad_rf_v2d3.mdl.net"
#undef typ
#endif

#ifdef min
dc_pad_rf=-0.15

#include "./pad_rf_v2d3.mdl.net"
#undef min
#endif

#ifdef max
dc_pad_rf=0.15

#include "./pad_rf_v2d3.mdl.net"
#undef max
#endif
