Options ResourceUsage=yes UseNutmegFormat=no EnableOptim=no TopDesignName="MIMOBLA_Chores_lib:SIMULATION4_Cascade:schematic"
define OPAMP_BiasCut ( inm  inp  out  int  N__10 ) 
;parameters 
"p_33_mm":Mp1  mirr inm top top Length=Lin Width=WoLin*Lin Mode=1 Noise=yes 
"n_33_mm":Mn1  mirr mirr 0 0 Length=Lout Width=WoLmirr*Lout Mode=1 Noise=yes 
"p_33_mm":Mp2  int inp top top Length=Lin Width=WoLin*Lin Mode=1 Noise=yes 
"n_33_mm":Mn2  int mirr 0 0 Length=Lout Width=WoLmirr*Lout Mode=1 Noise=yes 
"p_33_mm":Mp3  top N__21 vdd vdd Length=Lout Width=WoLtop*Lout Mode=1 Noise=yes 
V_Source:SRC1  vdd 0 Type="V_DC" Vdc=3.3 V SaveCurrent=1 
"n_33_mm":Mn3  out N__10 0 0 Length=Lout Width=WoLout*Lout Mode=1 Noise=yes 
"p_33_mm":Mp4  out N__11 vdd vdd Length=Lout Width=F*WoLout*Lout Mode=1 Noise=yes 
"p_33_mm":Mp5  N__21 N__21 vdd vdd Length=Lout Width=F*WoLout*Lout Mode=1 Noise=yes 
I_Source:SRC2  N__21 0 Type="I_DC" Idc=Iout 
C:C1  N__10 out C=Cc 

Lin=2um
Lout=1um

GBW=100e6
Cl=10pF

Kp=40e-6
F=Kn/Kp
Kn=100e-6

Vovin=0.15
Vovout=0.2

f_nd=6*GBW
gmout=f_nd*Cl*2*pi
Iout=gmout*Vovout/2
WoLout=Iout/(Kn*Vovout*Vovout)

Cc=3pF

gmin=GBW*Cc*2*pi
Iin=gmin*Vovin/2
WoLin=Iin/(Kp*Vovin*Vovin)

WoLmirr=Iin/(Kn*Vovout*Vovout)
WoLtop=WoLmirr*F*2
"p_33_mm":Mp6  N__11 N__11 vdd vdd Length=Lout Width=F*WoLout*Lout Mode=1 Noise=yes 
I_Source:SRC3  N__11 0 Type="I_DC" Idc=Iout 
end OPAMP_BiasCut
OPAMP_BiasCut:I__0  V_Ia sgnd V_Ib V_Ica V_Icb 
R:R2  V_IRa N__12 R=500 Ohm Noise=yes 
R:R1  N__12 V_IRb R=2500 Ohm Noise=yes 
C:C1  V_IRb sgnd C=10 pF 
Short:Ica  V_IRc V_Ica Mode=0 SaveCurrent=yes 
Short:IRc  VRc V_IRc Mode=0 SaveCurrent=yes 
V_Source:SRC1  sgnd 0 Type="V_DC" Vdc=3.3/2 SaveCurrent=0 
Short:IRb  VRb V_IRb Mode=0 SaveCurrent=yes 
Short:Ia  N__12 V_Ia Mode=0 SaveCurrent=yes 
Short:Ib  V_IRb V_Ib Mode=0 SaveCurrent=yes 
Short:IRa  VRa V_IRa Mode=0 SaveCurrent=yes 
#define TT TT
#ifndef inc_V__Toolbox_ADS_MIMOid_Demo_CascadedAmplifier_Models_umc18config_net
#define inc_V__Toolbox_ADS_MIMOid_Demo_CascadedAmplifier_Models_umc18config_net inc_V__Toolbox_ADS_MIMOid_Demo_CascadedAmplifier_Models_umc18config_net
#include "V:\Toolbox\ADS_MIMOid\Demo\CascadedAmplifier\Models\umc18config.net"
#endif
#undef TT
Short:Icb  V_IRc V_Icb Mode=0 SaveCurrent=yes 

#include "V:\Toolbox\ADS_MIMOid\Demo\CascadedAmplifier\SimSignals\MsSource1.net"
MultisineSource_1:MsSource_inst1 VRa sgnd
#include "V:\Toolbox\ADS_MIMOid\Demo\CascadedAmplifier\SimSignals\MsSource2.net"
MultisineSource_2:MsSource_inst2 VRb sgnd

HB:HB1 Freq=100000 Order=500 OutputPlan="ADAMOUT" 
Tran:HB_tran HB_Sol=yes SteadyState=1 StatusLevel=3 Freq=100000 Order=500 MaxTimeStep=1e-08 StopTime=2e-05 OutputPlan="ADAMOUT" 
Component:tahb_HB1 Module="ATAHB" Type="ModelExtractor" Tran_Analysis="HB_tran" HB_Analysis="HB1"
Options:Options1 TopologyCheckMessages=yes 
OutputPlan:ADAMOUT Type="Output" UseNodeNestLevel=yes NodeNestLevel=0 UseEquationNestLevel=yes EquationNestLevel=0 UseSavedEquationNestLevel=yes SavedEquationNestLevel=0 UseDeviceCurrentNestLevel=no DeviceCurrentNestLevel=0 DeviceCurrentDeviceType="All" DeviceCurrentSymSyntax=yes UseCurrentNestLevel=yes CurrentNestLevel=0 UseDeviceVoltageNestLevel=no DeviceVoltageNestLevel=0 DeviceVoltageDeviceType="All"
#load "python","PostProcessing"
Controller Module="PostProcessing" \
 PostProcessingModule="MatlabOutput" \
 Argument[0] = "V:\Toolbox\ADS_MIMOid\Demo\CascadedAmplifier\SimTemp\simresult.mat" \
 Argument[1] = "All" \
 Argument[2] = no \
  Argument[3] = ""
